[
  {   
      "banWords": "abc",
      "status": "active",
      "id": 1
  },
  { 
      "banWords": "xyz",
      "status": "active",
      "id": 2
  },
  { 
      "banWords": "sheiv siles",
      "status": "active",
      "id": 3
  },
  { 
      "banWords": "drogne",
      "status": "inactive",
      "id": 4
  },
  { 
      "banWords": "perosil",
      "status": "active",
      "id": 5
  }
]